<?xml version="1.0" encoding="utf-8"?>
<!-- Generator: Adobe Illustrator 23.0.2, SVG Export Plug-In . SVG Version: 6.00 Build 0)  -->
<svg version="1.1" id="Capa_1" xmlns="http://www.w3.org/2000/svg" xmlns:xlink="http://www.w3.org/1999/xlink" x="0px" y="0px"
	 viewBox="0 0 512 512" style="enable-background:new 0 0 512 512;" xml:space="preserve">
<style type="text/css">
	.st0{fill:#DC354599;}
</style>
<g>
	<g>
		<g>
			<path class="st0" d="M256,0C114.8,0,0,114.8,0,256s114.8,256,256,256s256-114.8,256-256S397.2,0,256,0z M256,489.7
				C127.1,489.7,22.3,384.9,22.3,256S127.1,22.3,256,22.3S489.7,127.1,489.7,256S384.9,489.7,256,489.7z"/>
		</g>
	</g>
	<rect x="240" y="140.1" class="st0" width="30" height="160.2"/>
	<circle class="st0" cx="255" cy="350.4" r="20"/>
</g>
</svg>
